SESNZ_Slides.knit
…
---
class: left, top
.center[
# Assessing Example Data (cont.)   
]

```r
# Lets inspect our tibble!
RawData 
```

```
## # A tibble: 249 × 4
##    Date                Athlete   `Left Leg Force` `Right Leg Force`
##    <dttm>              <chr>                <dbl>             <dbl>
##  1 2017-12-04 00:00:00 Gus Smith              294               297
##  2 2017-12-07 00:00:00 Gus Smith              310               315
##  3 2017-12-09 00:00:00 Gus Smith              349               360
##  4 2017-12-09 00:00:00 Gus Smith              433               412
##  5 2017-12-11 00:00:00 Gus Smith              303               307
##  6 2017-12-11 00:00:00 Gus Smith              474               457
##  7 2017-12-14 00:00:00 Gus Smith              345               354
##  8 2017-12-16 00:00:00 Gus Smith              325               336
##  9 2017-12-18 00:00:00 Gus Smith              358               395
## 10 2018-01-09 00:00:00 Gus Smith              366               373
## # ℹ 239 more rows
```
…
```r
# Rename columns - make them tidier
colnames(RawData) <- c("Date", "Athlete", "LeftLeg", "RightLeg") 
```
--

```r
# Inspect tibble, with new column names...
RawData 
```

```
## # A tibble: 249 × 4
##    Date                Athlete   LeftLeg RightLeg
##    <dttm>              <chr>       <dbl>    <dbl>
##  1 2017-12-04 00:00:00 Gus Smith     294      297
##  2 2017-12-07 00:00:00 Gus Smith     310      315
##  3 2017-12-09 00:00:00 Gus Smith     349      360
##  4 2017-12-09 00:00:00 Gus Smith     433      412
##  5 2017-12-11 00:00:00 Gus Smith     303      307
##  6 2017-12-11 00:00:00 Gus Smith     474      457
##  7 2017-12-14 00:00:00 Gus Smith     345      354
##  8 2017-12-16 00:00:00 Gus Smith     325      336
##  9 2017-12-18 00:00:00 Gus Smith     358      395
## 10 2018-01-09 00:00:00 Gus Smith     366      373
## # ℹ 239 more rows
```
…
--
  
Example data problem = One variable (force in N) is spread across multiple (Left and Right) columns.

--

```r
# Closer inspection of data frame, to demonstrate "wide" format
RawData 
```

```
## # A tibble: 249 × 4
##    Date                Athlete   LeftLeg RightLeg
##    <dttm>              <chr>       <dbl>    <dbl>
##  1 2017-12-04 00:00:00 Gus Smith     294      297
##  2 2017-12-07 00:00:00 Gus Smith     310      315
##  3 2017-12-09 00:00:00 Gus Smith     349      360
##  4 2017-12-09 00:00:00 Gus Smith     433      412
##  5 2017-12-11 00:00:00 Gus Smith     303      307
##  6 2017-12-11 00:00:00 Gus Smith     474      457
##  7 2017-12-14 00:00:00 Gus Smith     345      354
##  8 2017-12-16 00:00:00 Gus Smith     325      336
##  9 2017-12-18 00:00:00 Gus Smith     358      395
## 10 2018-01-09 00:00:00 Gus Smith     366      373
## # ℹ 239 more rows
```
…
```r
# Using the tidyverse, we move from a "wide" to a "long" format
RawData <- RawData %>% 
pivot_longer(LeftLeg:RightLeg, names_to = "Leg", values_to = "Force")
```

--

```r
# Observe our pivoting!
RawData 
```

```
## # A tibble: 498 × 4
##    Date                Athlete   Leg      Force
##    <dttm>              <chr>     <chr>    <dbl>
##  1 2017-12-04 00:00:00 Gus Smith LeftLeg    294
##  2 2017-12-04 00:00:00 Gus Smith RightLeg   297
##  3 2017-12-07 00:00:00 Gus Smith LeftLeg    310
##  4 2017-12-07 00:00:00 Gus Smith RightLeg   315
##  5 2017-12-09 00:00:00 Gus Smith LeftLeg    349
##  6 2017-12-09 00:00:00 Gus Smith RightLeg   360
##  7 2017-12-09 00:00:00 Gus Smith LeftLeg    433
##  8 2017-12-09 00:00:00 Gus Smith RightLeg   412
##  9 2017-12-11 00:00:00 Gus Smith LeftLeg    303
## 10 2017-12-11 00:00:00 Gus Smith RightLeg   307
## # ℹ 488 more rows
```
…
Example data problem = I want to create a new column, whereby Force is expressed relative (N/ kg).

--

Solution = mutate (again using lovely `tidyverse` tools) to create a new column for relative force values.

```r
# Make Force data relative, for simplicity we assume all athletes are 80kg
RawData %>% 
  mutate(RelativeForce = Force/80)
```
--

```
## # A tibble: 498 × 5
##    Date                Athlete   Leg      Force RelativeForce
##    <dttm>              <chr>     <chr>    <dbl>         <dbl>
##  1 2017-12-04 00:00:00 Gus Smith LeftLeg    294          3.68
##  2 2017-12-04 00:00:00 Gus Smith RightLeg   297          3.71
##  3 2017-12-07 00:00:00 Gus Smith LeftLeg    310          3.88
##  4 2017-12-07 00:00:00 Gus Smith RightLeg   315          3.94
##  5 2017-12-09 00:00:00 Gus Smith LeftLeg    349          4.36
##  6 2017-12-09 00:00:00 Gus Smith RightLeg   360          4.5 
##  7 2017-12-09 00:00:00 Gus Smith LeftLeg    433          5.41
##  8 2017-12-09 00:00:00 Gus Smith RightLeg   412          5.15
##  9 2017-12-11 00:00:00 Gus Smith LeftLeg    303          3.79
## 10 2017-12-11 00:00:00 Gus Smith RightLeg   307          3.84
## # ℹ 488 more rows
```
…
